<?xml version="1.0" encoding="UTF-8" standalone="no"?>
<!-- Created with Inkscape (http://www.inkscape.org/) -->

<svg
   width="22mm"
   height="16mm"
   viewBox="0 0 22 16"
   version="1.1"
   id="svg2943"
   inkscape:version="1.1.2 (0a00cf5339, 2022-02-04)"
   sodipodi:docname="favicon.svg"
   xmlns:inkscape="http://www.inkscape.org/namespaces/inkscape"
   xmlns:sodipodi="http://sodipodi.sourceforge.net/DTD/sodipodi-0.dtd"
   xmlns="http://www.w3.org/2000/svg"
   xmlns:svg="http://www.w3.org/2000/svg"
   xmlns:ns="http://ns.adobe.com/SaveForWeb/1.0/">
  <sodipodi:namedview
     id="namedview2945"
     pagecolor="#505050"
     bordercolor="#eeeeee"
     borderopacity="1"
     inkscape:pageshadow="0"
     inkscape:pageopacity="0"
     inkscape:pagecheckerboard="0"
     inkscape:document-units="mm"
     showgrid="false"
     inkscape:zoom="3.1973498"
     inkscape:cx="98.049954"
     inkscape:cy="105.86893"
     inkscape:window-width="1883"
     inkscape:window-height="1056"
     inkscape:window-x="37"
     inkscape:window-y="0"
     inkscape:window-maximized="1"
     inkscape:current-layer="layer1" />
  <defs
     id="defs2940" />
  <g
     inkscape:label="Layer 1"
     inkscape:groupmode="layer"
     id="layer1">
    <g
       id="SvgjsG2939"
       featurekey="HKaMnE-0"
       transform="matrix(0.2362686,0,0,0.2362686,-0.77360817,-3.5703354)"
       fill="url(#SvgjsLinearGradient2943)"
       style="fill:#000000;fill-opacity:1;stroke-width:0.998863;stroke-miterlimit:4;stroke-dasharray:none">
      <metadata
         id="metadata1430">
        <ns:sfw
           style="fill-opacity:1;fill:url(#linearGradient2179)">
          <ns:slices
             style="fill-opacity:1;fill:url(#linearGradient2179)">
            <ns:slicesourcebounds
               height="55.5"
               width="83"
               x="8.5"
               y="22.25"
               bottomleftorigin="true"
               style="fill-opacity:1;fill:url(#linearGradient2179)" />
            <ns:optimizationsettings
               style="fill-opacity:1;fill:url(#linearGradient2179)">
              <ns:targetsettings
                 targetsettingsid="0"
                 fileformat="GIFFormat"
                 style="fill-opacity:1;fill:url(#linearGradient2179)">
                <ns:gifformat
                   transparency="true"
                   lossy="0"
                   mattecolor=""
                   interlaced="false"
                   nomattecolor="false"
                   webshiftpercent="0"
                   includecaption="false"
                   reductionalgorithm="selective"
                   ditheralgorithm="diffusion"
                   ditherpercent="100"
                   numcolors="256"
                   rollovermasterpalette="false"
                   autoreduce="false"
                   style="fill-opacity:1;fill:url(#linearGradient2179)">
                  <ns:colortable
                     isexact="false"
                     style="fill-opacity:1;fill:url(#linearGradient2179)" />
                  <ns:lockedcolors
                     style="fill-opacity:1;fill:url(#linearGradient2179)">
                    <ns:colorshiftentries
                       style="fill-opacity:1;fill:url(#linearGradient2179)" />
                  </ns:lockedcolors>
                </ns:gifformat>
              </ns:targetsettings>
            </ns:optimizationsettings>
          </ns:slices>
        </ns:sfw>
      </metadata>
      <g
         id="g1442"
         style="fill:#000000;fill-opacity:1;stroke-width:0.998863;stroke-miterlimit:4;stroke-dasharray:none">
        <path
           d="m 76.25,47.25 c -0.764,0 -1.525,0.058 -2.28,0.172 C 73.99,47.028 74,46.637 74,46.25 74,33.016 63.233,22.25 50,22.25 37.257,22.25 26.802,32.232 26.044,44.788 25.688,44.763 25.342,44.75 25,44.75 c -9.098,0 -16.5,7.402 -16.5,16.5 0,8.076 5.912,15.161 13.751,16.479 l 55.316,0.021 0.067,-0.006 C 85.409,77.043 91.5,70.347 91.5,62.5 91.5,54.091 84.659,47.25 76.25,47.25 Z m 1.181,27.5 H 22.629 C 16.275,73.62 11.5,67.839 11.5,61.25 c 0,-7.444 6.056,-13.5 13.5,-13.5 0.699,0 1.437,0.067 2.257,0.205 L 29.029,48.252 29,46.25 c 0,-11.58 9.42,-21 21,-21 11.579,0 21,9.42 21,21 0,0.938 -0.068,1.907 -0.202,2.882 l -0.317,2.313 2.236,-0.672 c 1.152,-0.347 2.341,-0.523 3.533,-0.523 6.755,0 12.25,5.495 12.25,12.25 0,6.287 -4.856,11.655 -11.069,12.25 z"
           id="path1432"
           style="fill:#000000;fill-opacity:1;stroke-width:0.998863;stroke-miterlimit:4;stroke-dasharray:none" />
        <path
           d="m 25,52.75 c -0.552,0 -1,0.447 -1,1 0,0.553 0.448,1 1,1 3.584,0 6.5,2.916 6.5,6.5 0,0.553 0.448,1 1,1 0.552,0 1,-0.447 1,-1 0,-4.687 -3.813,-8.5 -8.5,-8.5 z"
           id="path1434"
           style="fill:#000000;fill-opacity:1;stroke-width:0.998863;stroke-miterlimit:4;stroke-dasharray:none" />
        <path
           d="m 52.5,30.25 c -0.553,0 -1,0.448 -1,1 0,0.552 0.447,1 1,1 7.72,0 14,6.28 14,14 0,0.552 0.447,1 1,1 0.553,0 1,-0.448 1,-1 0,-8.822 -7.178,-16 -16,-16 z"
           id="path1436"
           style="fill:#000000;fill-opacity:1;stroke-width:0.998863;stroke-miterlimit:4;stroke-dasharray:none" />
        <path
           d="m 77.5,52.75 c -0.553,0 -1,0.447 -1,1 0,0.553 0.447,1 1,1 3.584,0 6.5,2.916 6.5,6.5 0,0.553 0.447,1 1,1 0.553,0 1,-0.447 1,-1 0,-4.687 -3.813,-8.5 -8.5,-8.5 z"
           id="path1438"
           style="fill:#000000;fill-opacity:1;stroke-width:0.998863;stroke-miterlimit:4;stroke-dasharray:none" />
        <path
           d="m 56.5,49.75 v -6 c 0,-3.584 -2.916,-6.5 -6.5,-6.5 -3.584,0 -6.5,2.916 -6.5,6.5 v 6 c -1.378,0 -2.5,1.122 -2.5,2.5 v 13 c 0,1.379 1.122,2.5 2.5,2.5 h 13 c 1.379,0 2.5,-1.121 2.5,-2.5 v -13 c 0,-1.378 -1.121,-2.5 -2.5,-2.5 z M 44,57.25 h 12 v 3 H 44 Z m 0,-4.5 h 12 v 2.5 H 44 Z m 2.5,-9 c 0,-1.93 1.57,-3.5 3.5,-3.5 1.93,0 3.5,1.57 3.5,3.5 v 6 h -7 z m -2.5,21 v -2.5 h 12 v 2.5 z"
           id="path1440"
           style="fill:#000000;fill-opacity:1;stroke-width:0.998863;stroke-miterlimit:4;stroke-dasharray:none" />
      </g>
    </g>
  </g>
</svg>
